[
  {
    "id": 3,
    "description": "Headache by API REST",
    "amount": 200.0,
    "date": "2017-08-24"
  },
  {
    "id": 4,
    "description": "Lorem Iprum dolor sit amet",
    "amount": 199.0,
    "date": "2017-08-24"
  },
  {
    "id": 5,
    "description": "Other lorem iprum dolor sit amet",
    "amount": 99.0,
    "date": "2017-08-24"
  },
  {
    "id": 6,
    "description": "Dolor sit amet",
    "amount": 159.99,
    "date": "2017-08-24"
  },
  {
    "id": 7,
    "description": "Testing using jQuery",
    "amount": 0.99,
    "date": "2017-08-24"
  }
]